%YAML 1.1
%TAG !u! tag:unity3d.com,2011:
--- !u!1045 &1
EditorBuildSettings:
  m_ObjectHideFlags: 0
  serializedVersion: 2
  m_Scenes:
  - enabled: 1
    path: Assets/Scenes/MenuScene.unity
    guid: 56deee2e31cea4321a9904f27eb10cc6
  - enabled: 1
    path: Assets/Scenes/ValleyScene.unity
    guid: 99c9720ab356a0642a771bea13969a05
  - enabled: 1
    path: Assets/Scenes/TownScene.unity
    guid: f160de97f686e8743b4f1d7ba1980e56
  m_configObjects: {}
